{
  "description": "Zoekt node metadata",
  "type": "object",
  "properties": {
    "name": {
      "type": "string"
    },
    "task_count": {
      "type": "integer"
    },
    "concurrency": {
      "type": "integer"
    },
    "version": {
      "type": [
        "string",
        "null"
      ]
    }
  },
  "additionalProperties": true
}
